Econometrics
…
* Many similar experiments have been conducted with other groups. Arabic Names, Black names, Jewish names or other groups that can be identified from typical name choice.
]

--

.pull-right[

``` r
library(moderndive)
promotions
```

```
## # A tibble: 48 × 3
##       id decision gender
##    <int> <fct>    <fct> 
##  1     1 promoted male  
##  2     2 promoted male  
##  3     3 promoted male  
##  4     4 promoted male  
##  5     5 promoted male  
##  6     6 promoted male  
##  7     7 promoted male  
##  8     8 promoted male  
##  9     9 promoted male  
## 10    10 promoted male  
## # ℹ 38 more rows
```
…
```
## Response: decision (factor)
## Explanatory: gender (factor)
## Null Hypothesis: ind...
## # A tibble: 1,000 × 2
##    replicate    stat
##        <int>   <dbl>
##  1         1 -0.0417
##  2         2  0.125 
##  3         3 -0.0417
##  4         4 -0.125 
##  5         5  0.208 
##  6         6 -0.125 
##  7         7 -0.125 
##  8         8 -0.208 
##  9         9  0.208 
## 10        10 -0.125 
## # ℹ 990 more rows
```
…
